{
  "project_info": {
    "project_number": "808631651024",
    "firebase_url": "https://wow-walls-android.firebaseio.com",
    "project_id": "wow-walls-android",
    "storage_bucket": "wow-walls-android.appspot.com"
  },
  "client": [
    {
      "client_info": {
        "mobilesdk_app_id": "1:808631651024:android:e1b33657905d9f92276cd5",
        "android_client_info": {
          "package_name": "wallsplash.sudhanshu.com"
        }
      },
      "oauth_client": [
        {
          "client_id": "808631651024-nte8a91e7hcil9qrqebf7ibd535ebll8.apps.googleusercontent.com",
          "client_type": 1,
          "android_info": {
            "package_name": "wallsplash.sudhanshu.com",
            "certificate_hash": "80829935bf2d046231dee77f6abf2b6d256af44d"
          }
        },
        {
          "client_id": "808631651024-rtvueaut1l6rbnr1b4uh1mmilihkhe1g.apps.googleusercontent.com",
          "client_type": 3
        }
      ],
      "api_key": [
        {
          "current_key": "AIzaSyApeVHdHArznBXA1qfg0X3jqQg0z5cc5tg"
        }
      ],
      "services": {
        "appinvite_service": {
          "other_platform_oauth_client": [
            {
              "client_id": "808631651024-rtvueaut1l6rbnr1b4uh1mmilihkhe1g.apps.googleusercontent.com",
              "client_type": 3
            }
          ]
        }
      }
    }
  ],
  "configuration_version": "1"
}